<svg xmlns="http://www.w3.org/2000/svg" width="12.6" height="8.82" viewBox="0 0 12.6 8.82">
  <path id="Check" d="M4.593,7.131,11.422.2A.683.683,0,0,1,12.4.2a.707.707,0,0,1,0,.989L5.08,8.615a.683.683,0,0,1-.976,0L.2,4.657a.707.707,0,0,1,0-.989.683.683,0,0,1,.976,0Z" fill="#fff"/>
</svg>
