<svg id="Group_1289" data-name="Group 1289" xmlns="http://www.w3.org/2000/svg" xmlns:xlink="http://www.w3.org/1999/xlink" width="69.385" height="69.384" viewBox="0 0 69.385 69.384">
  <defs>
    <clipPath id="clip-path">
      <rect id="Rectangle_1135" data-name="Rectangle 1135" width="69.385" height="69.384" transform="translate(0 0)" fill="#304659" stroke="#304659" stroke-width="2"/>
    </clipPath>
  </defs>
  <g id="Group_1288" data-name="Group 1288" >
    <path id="Path_3294" data-name="Path 3294" d="M34.7,67.884h-.009a33.137,33.137,0,0,1-16.229-4.232L4.89,66.322a1.558,1.558,0,0,1-1.828-1.829L5.733,50.921A33.193,33.193,0,0,1,34.685,1.5a.1.1,0,0,0,.017,0A33.194,33.194,0,0,1,58.165,58.164,32.96,32.96,0,0,1,34.7,67.884M18.734,60.455a1.551,1.551,0,0,1,.788.215,30.025,30.025,0,0,0,15.171,4.1H34.7A30.08,30.08,0,0,0,55.963,13.421,29.869,29.869,0,0,0,34.7,4.613h-.016A30.084,30.084,0,0,0,8.716,49.862,1.557,1.557,0,0,1,8.9,50.951L6.566,62.819l11.868-2.335a1.51,1.51,0,0,1,.3-.029" fill="#304659" stroke="#304659" stroke-width="2"/>
    <path id="Path_3295" data-name="Path 3295" d="M34.7,67.884h-.009a33.137,33.137,0,0,1-16.229-4.232L4.89,66.322a1.558,1.558,0,0,1-1.828-1.829L5.733,50.921A33.193,33.193,0,0,1,34.685,1.5a.1.1,0,0,0,.017,0A33.194,33.194,0,0,1,58.165,58.164,32.96,32.96,0,0,1,34.7,67.884ZM18.734,60.455a1.551,1.551,0,0,1,.788.215,30.025,30.025,0,0,0,15.171,4.1H34.7A30.08,30.08,0,0,0,55.963,13.421,29.869,29.869,0,0,0,34.7,4.613h-.016A30.084,30.084,0,0,0,8.716,49.862,1.557,1.557,0,0,1,8.9,50.951L6.566,62.819l11.868-2.335A1.51,1.51,0,0,1,18.734,60.455Z" fill="#304659" stroke="#304659" stroke-miterlimit="10" stroke-width="2"/>
    <path id="Path_3296" data-name="Path 3296" d="M34.978,38.207a3.13,3.13,0,1,1,3.131-3.13,3.134,3.134,0,0,1-3.131,3.13m0-3.147.017.017a.017.017,0,0,0-.017-.017" fill="#304659" stroke="#304659" stroke-width="2"/>
    <path id="Path_3297" data-name="Path 3297" d="M34.978,38.207a3.13,3.13,0,1,1,3.131-3.13A3.134,3.134,0,0,1,34.978,38.207Zm0-3.147.017.017A.017.017,0,0,0,34.978,35.06Z" fill="#304659" stroke="#304659" stroke-miterlimit="10" stroke-width="2"/>
    <path id="Path_3298" data-name="Path 3298" d="M21.859,38.207a3.13,3.13,0,1,1,3.131-3.13,3.135,3.135,0,0,1-3.131,3.13m0-3.147.017.017a.018.018,0,0,0-.017-.017" fill="#304659" stroke="#304659" stroke-width="2"/>
    <path id="Path_3299" data-name="Path 3299" d="M21.859,38.207a3.13,3.13,0,1,1,3.131-3.13A3.135,3.135,0,0,1,21.859,38.207Zm0-3.147.017.017A.018.018,0,0,0,21.859,35.06Z" fill="#304659" stroke="#304659" stroke-miterlimit="10" stroke-width="2"/>
    <path id="Path_3300" data-name="Path 3300" d="M48.1,38.207a3.13,3.13,0,1,1,3.131-3.13,3.135,3.135,0,0,1-3.131,3.13m0-3.147.018.017a.018.018,0,0,0-.018-.017" fill="#304659" stroke="#304659" stroke-width="2"/>
    <path id="Path_3301" data-name="Path 3301" d="M48.1,38.207a3.13,3.13,0,1,1,3.131-3.13A3.135,3.135,0,0,1,48.1,38.207Zm0-3.147.018.017A.018.018,0,0,0,48.1,35.06Z" fill="#304659" stroke="#304659" stroke-miterlimit="10" stroke-width="2"/>
  </g>
</svg>
