<svg id="Check" xmlns="http://www.w3.org/2000/svg" width="20" height="20" viewBox="0 0 20 20">
  <rect id="Area" width="20" height="20" fill="none"/>
  <path id="Border" d="M5.659,10.9,16.638,0,17.7,1.054,5.664,13l-.049-.048L0,7.38,1.062,6.326Z" transform="translate(1.151 3.5)" fill="#304659"/>
</svg>
