<svg id="Group_708" data-name="Group 708" xmlns="http://www.w3.org/2000/svg" width="34.655" height="34.655" viewBox="0 0 34.655 34.655">
  <path id="Path_2948" data-name="Path 2948" d="M17.327,0A17.327,17.327,0,1,1,0,17.327,17.327,17.327,0,0,1,17.327,0Z" transform="translate(0 0)" fill="#fff" opacity="0.315"/>
  <g id="Play" transform="translate(8.73 8.385)">
    <rect id="Area" width="18" height="18" transform="translate(0 0)" fill="none"/>
    <path id="Background_1" data-name="Background 1" d="M0,10.926,9.351,5.2,0,0Z" transform="translate(5.332 3.554)" fill="none"/>
    <path id="Border" d="M0,14V0L11,7,0,14ZM1.27,2.348v9.3L8.582,7Z" transform="translate(4 2)" fill="#fff"/>
  </g>
</svg>
