<svg xmlns="http://www.w3.org/2000/svg" width="434.101" height="2" viewBox="0 0 434.101 2">
  <g id="Component_241_1" data-name="Component 241 – 1" transform="translate(1 1)">
    <path id="Path_3056" data-name="Path 3056" d="M432.1,0H0" fill="none" stroke="#fff" stroke-linecap="round" stroke-width="2" stroke-dasharray="7"/>
  </g>
</svg>
